{
	"id": "ce5a6244-564e-47e7-f9bb-6a6e5eb485f6",
	"name": "brainchild",
	"description": "",
	"order": [
		"acdbba2a-3628-832c-eb5b-bdad3bbf2063",
		"152a4128-77f0-9e37-49fc-146d0595d796",
		"71cb36f2-eb37-2840-8b1d-b6ad9949e76d",
		"8a5f4471-51e8-7e20-08c1-f9a489be37a2",
		"d36c8642-8b57-a565-d33d-40acc29fbb42",
		"49ddbe7e-eefb-1a4f-9382-d346ed174d75"
	],
	"folders": [],
	"timestamp": 1483680177790,
	"owner": "271927",
	"public": false,
	"requests": [
		{
			"id": "152a4128-77f0-9e37-49fc-146d0595d796",
			"headers": "Content-Type: application/x-www-form-urlencoded\n",
			"url": "127.0.0.1/mk/api/reg/internal/",
			"pathVariables": {},
			"preRequestScript": null,
			"method": "POST",
			"collectionId": "ce5a6244-564e-47e7-f9bb-6a6e5eb485f6",
			"data": [
				{
					"key": "regno",
					"value": "UL13CS014",
					"type": "text",
					"enabled": true
				},
				{
					"key": "name",
					"value": "Abiyouth",
					"type": "text",
					"enabled": true
				},
				{
					"key": "email",
					"value": "",
					"type": "text",
					"enabled": false
				},
				{
					"key": "gender",
					"value": "M",
					"type": "text",
					"enabled": true
				},
				{
					"key": "phone",
					"value": "9600424321",
					"type": "text",
					"enabled": true
				},
				{
					"key": "dob",
					"value": "1994-04-17",
					"type": "text",
					"enabled": true
				},
				{
					"key": "pass",
					"value": "iamyouth",
					"type": "text",
					"enabled": true
				},
				{
					"key": "",
					"value": "",
					"type": "text",
					"enabled": false
				}
			],
			"dataMode": "urlencoded",
			"name": "Internal Registration",
			"description": "",
			"descriptionFormat": "html",
			"time": 1483740256872,
			"version": 2,
			"responses": [],
			"tests": null,
			"currentHelper": "normal",
			"helperAttributes": {}
		},
		{
			"id": "49ddbe7e-eefb-1a4f-9382-d346ed174d75",
			"headers": "Content-Type: application/x-www-form-urlencoded\n",
			"url": "127.0.0.1/mk/api/resend/otp/",
			"pathVariables": {},
			"preRequestScript": null,
			"method": "POST",
			"collectionId": "ce5a6244-564e-47e7-f9bb-6a6e5eb485f6",
			"data": [
				{
					"key": "phone",
					"value": "9600424322",
					"type": "text",
					"enabled": true
				}
			],
			"dataMode": "urlencoded",
			"name": "Resend OTP",
			"description": "",
			"descriptionFormat": "html",
			"time": 1483741480135,
			"version": 2,
			"responses": [],
			"tests": null,
			"currentHelper": "normal",
			"helperAttributes": {}
		},
		{
			"id": "71cb36f2-eb37-2840-8b1d-b6ad9949e76d",
			"headers": "Content-Type: application/x-www-form-urlencoded\n",
			"url": "127.0.0.1/mk/api/verify/otp/",
			"pathVariables": {},
			"preRequestScript": null,
			"method": "POST",
			"collectionId": "ce5a6244-564e-47e7-f9bb-6a6e5eb485f6",
			"data": [
				{
					"key": "phone",
					"value": "9600424323",
					"type": "text",
					"enabled": true
				},
				{
					"key": "otp",
					"value": "194788",
					"type": "text",
					"enabled": true
				},
				{
					"key": "",
					"value": "",
					"type": "text",
					"enabled": false
				}
			],
			"dataMode": "urlencoded",
			"name": "Verify OTP",
			"description": "",
			"descriptionFormat": "html",
			"time": 1483740277073,
			"version": 2,
			"responses": [],
			"tests": null,
			"currentHelper": "normal",
			"helperAttributes": {}
		},
		{
			"id": "8a5f4471-51e8-7e20-08c1-f9a489be37a2",
			"headers": "Content-Type: application/x-www-form-urlencoded\n",
			"url": "127.0.0.1/mk/api/login/",
			"pathVariables": {},
			"preRequestScript": null,
			"method": "POST",
			"collectionId": "ce5a6244-564e-47e7-f9bb-6a6e5eb485f6",
			"data": [
				{
					"key": "username",
					"value": "UR13CS015",
					"type": "text",
					"enabled": true
				},
				{
					"key": "password",
					"value": "iamyouth",
					"type": "text",
					"enabled": true
				}
			],
			"dataMode": "urlencoded",
			"name": "Login",
			"description": "",
			"descriptionFormat": "html",
			"time": 1483740360163,
			"version": 2,
			"responses": [],
			"tests": null,
			"currentHelper": "normal",
			"helperAttributes": {}
		},
		{
			"id": "acdbba2a-3628-832c-eb5b-bdad3bbf2063",
			"headers": "Content-Type: application/x-www-form-urlencoded\n",
			"url": "127.0.0.1/mk/api/reg/external/",
			"pathVariables": {},
			"preRequestScript": null,
			"method": "POST",
			"collectionId": "ce5a6244-564e-47e7-f9bb-6a6e5eb485f6",
			"data": [
				{
					"key": "username",
					"value": "fallen",
					"type": "text",
					"enabled": true
				},
				{
					"key": "name",
					"value": "Godslayer",
					"type": "text",
					"enabled": true
				},
				{
					"key": "email",
					"value": "abiyouth@live.co",
					"type": "text",
					"enabled": true
				},
				{
					"key": "gender",
					"value": "M",
					"type": "text",
					"enabled": true
				},
				{
					"key": "phone",
					"value": "9600424322",
					"type": "text",
					"enabled": true
				},
				{
					"key": "dob",
					"value": "1994-04-17",
					"type": "text",
					"enabled": true
				},
				{
					"key": "pass",
					"value": "iamyouth",
					"type": "text",
					"enabled": true
				},
				{
					"key": "college",
					"value": "MERIT",
					"type": "text",
					"enabled": true
				}
			],
			"dataMode": "urlencoded",
			"name": "External Registration",
			"description": "",
			"descriptionFormat": "html",
			"time": 1483740192144,
			"version": 2,
			"responses": [],
			"tests": null,
			"currentHelper": "normal",
			"helperAttributes": {}
		},
		{
			"id": "d36c8642-8b57-a565-d33d-40acc29fbb42",
			"headers": "",
			"url": "127.0.0.1/mk/logout/",
			"pathVariables": {},
			"preRequestScript": null,
			"method": "GET",
			"collectionId": "ce5a6244-564e-47e7-f9bb-6a6e5eb485f6",
			"data": null,
			"dataMode": "params",
			"name": "Logout",
			"description": "",
			"descriptionFormat": "html",
			"time": 1483740562684,
			"version": 2,
			"responses": [],
			"tests": null,
			"currentHelper": "normal",
			"helperAttributes": {}
		}
	]
}